{
	"info": {
		"_postman_id": "b96d6163-aa0b-47a6-b2c0-136fba3f0ade",
		"name": "MathWs",
		"schema": "https://schema.getpostman.com/json/collection/v2.1.0/collection.json"
	},
	"item": [
		{
			"name": "MathWs-Simple-Add",
			"request": {
				"method": "POST",
				"header": [],
				"body": {
					"mode": "raw",
					"raw": "{\n    service: {\n        name:\"simple\",\n        operation:\"add\"\n    },\n    input: {\n        a: [1,2,3,4,5],\n        b: [0,9,8,7,6]\n    }\n}"
				},
				"url": {
					"raw": "localhost:8080/mathapi",
					"host": [
						"localhost"
					],
					"port": "8080",
					"path": [
						"mathapi"
					]
				}
			},
			"response": []
		},
		{
			"name": "MathWs-Simple-Sub",
			"request": {
				"method": "POST",
				"header": [],
				"body": {
					"mode": "raw",
					"raw": "{\n    service: {\n        name:\"simple\",\n        operation:\"sub\"\n    },\n    input: {\n        a: [1,2,3,4,5],\n        b: [0,9,8,7,6]\n    }\n}"
				},
				"url": {
					"raw": "localhost:8080/mathapi",
					"host": [
						"localhost"
					],
					"port": "8080",
					"path": [
						"mathapi"
					]
				}
			},
			"response": []
		},
		{
			"name": "MathWs-Simple-Mul",
			"request": {
				"method": "POST",
				"header": [],
				"body": {
					"mode": "raw",
					"raw": "{\n    service: {\n        name:\"simple\",\n        operation:\"mul\"\n    },\n    input: {\n        a: [1,2,3,4,5],\n        b: [0,9,8,7,6]\n    }\n}"
				},
				"url": {
					"raw": "localhost:8080/mathapi",
					"host": [
						"localhost"
					],
					"port": "8080",
					"path": [
						"mathapi"
					]
				}
			},
			"response": []
		},
		{
			"name": "MathWs-Simple-Div",
			"request": {
				"method": "POST",
				"header": [],
				"body": {
					"mode": "raw",
					"raw": "{\n    service: {\n        name:\"simple\",\n        operation:\"div\"\n    },\n    input: {\n        a: [1,2,3,4,5],\n        b: [2,9,8,7,6]\n    }\n}"
				},
				"url": {
					"raw": "localhost:8080/mathapi",
					"host": [
						"localhost"
					],
					"port": "8080",
					"path": [
						"mathapi"
					]
				}
			},
			"response": []
		},
		{
			"name": "MathWs-Correlation-Normal",
			"request": {
				"method": "POST",
				"header": [],
				"body": {
					"mode": "raw",
					"raw": "{\n    service: {\n        name:\"correlation\",\n        operation:\"normal\"\n    },\n    input: {\n        a: [1,2,3,4,5],\n        b: [0,9,8,7,6]\n    }\n}"
				},
				"url": {
					"raw": "localhost:8080/mathapi",
					"host": [
						"localhost"
					],
					"port": "8080",
					"path": [
						"mathapi"
					]
				}
			},
			"response": []
		},
		{
			"name": "MathWs-Convolution-Normal",
			"request": {
				"method": "POST",
				"header": [],
				"body": {
					"mode": "raw",
					"raw": "{\n    service: {\n        name:\"convolution\",\n        operation:\"normal\"\n    },\n    input: {\n        a: [1,2,3,4,5],\n        b: [0,9,8,7,6]\n    }\n}"
				},
				"url": {
					"raw": "localhost:8080/mathapi",
					"host": [
						"localhost"
					],
					"port": "8080",
					"path": [
						"mathapi"
					]
				}
			},
			"response": []
		}
	]
}